{

  "coc.preferences.formatOnSave": true,


  "languageserver": {

    "haskell": {
      "command": "hie-nix-wrapper",
      "args": [ "--lsp" ],
      "rootPatterns": [
        "stack.yaml",
        "cabal.config",
        "package.yaml",
      ],
      "filetypes": [
        "hs",
        "lhs",
        "haskell",
      ],
      "initializationOptions": {
        "languageServerHaskell": {
          "hlintOn": true,
        },
      },
    },

    "kotlin": {
      "command": "~/.local/share/nvim-coc/lsp/kotlin/server/bin/kotlin-language-server",
      "filetypes": [ "kotlin" ],
    },

    "nixd": {
      "command": "nixd",
      "filetypes": [ "nix" ],
    },

  },


  "diagnostic-languageserver.mergeConfig": true,
  "diagnostic-languageserver.filetypes": {
    "vim": "vint",
    "hs": "hlint",
    "c": "flawfinder",
  },
  "diagnostic-languageserver.formatFiletypes": {
    "nix": "nixfmt",
  },
  "diagnostic-languageserver.linters": {
    "flawfinder": {
      "command": "flawfinder",
      "debounce": 100,
      "args": [ "-CDQS", "--minlevel=1", "%tempfile", ],
      "offsetLine": 0,
      "offsetColumn": 0,
      "sourceName": "flawfinder",
      "formatLines": 1,
      "formatPattern": [
        "^([a-zA-Z]?:?[^:]+):(\\d+):(\\d+)?:?  \\[([0-5])\\] ([^:]+:.+)$",
        {
          "sourceName": 1,
          "line": 2,
          "column": 3,
          "message": [ 5 ],
          "security": 4,
        }
      ],
      "securities": {
        "0": "info",
        "1": "info",
        "2": "warning",
        "3": "warning",
        "4": "warning",
        "5": "warning",
      },
    },
  },


  "html.filetypes": [
    "html",
    "handlebars",
    "html.handlebars",
    "htmldjango",
    "blade",
  ],

  "ltex.enabled": [
    "bibtex",
    "context",
    "context.tex",
    //"html",
    "latex",
    "markdown",
    "org",
    "restructuredtext",
    "rsweave"
  ],
  "ltex.java.path": "${env:JAVA_HOME}",
  "ltex.language": "de-DE",
  "ltex.latex.commands":{
    "\\label{}": "ignore",
    "\\documentclass[]{}": "ignore",
    "\\cite{}": "dummy",
    "\\cite[]{}": "dummy",
    "\\textit{}": "dummy",
    "\\emph{}": "default",
    "\\nameref{}": "dummy",
    "\\today": "dummy",
    "\\thistime": "dummy",
    "\\alph{}": "dummy",
    "\\DeclareLabelalphaTemplate{}": "ignore",
    "\\DeclareFieldFormat[] {}{}": "ignore",
    "\\citefield{}[]{}": "dummy",
    "\\usebibentry{}{}": "dummy",
    "\\renewcaptionname{}{}": "ignore",
    "\\newcaptionname{}{}": "ignore",
    "\\usetheme[]{}": "ignore",
    "\\useinnertheme[]{}": "ignore",
    "\\usebeamerfont{}": "ignore",
    "\\setbeamertemplate{}{}": "ignore",
    "\\setbeamertemplate{}[]": "ignore",
    "\\setbeamercolor{}{}": "ignore",
    "\\column{}": "ignore",
    "\\resizebox{}{}": "ignore",
    "\\ifthenelse{}": "ignore",
    "\\includeonly{}": "ignore",
    "\\includesvg[]{}": "ignore",
    "\\addtolength{}{}": "ignore",
    "\\bcbar[]": "ignore",
    "\\newminted{}{}": "ignore",
    "\\newmintedfile{}{}": "ignore",
    "\\againframe{}": "ignore",
    "\\againframe<>{}": "ignore",
    "\\rowcolors{}{}{}": "ignore",
    "\\rowcolors[]{}{}{}": "ignore",
    "\\pgfdeclarepatternformonly{}{}{}{}{}": "ignore",
    "\\pgfkeys{}": "ignore",
    "\\includegraphics<>{}": "ignore",
    "\\includegraphics<>[]{}": "ignore",
    "\\tikz{}": "ignore",
    "\\tikz[]{}": "ignore",
    "\\tikzfading[]": "ignore",
    "\\tikzmark{}": "ignore",
    "\\tikzmarknode{}": "ignore",
    "\\tikzmarknode[]{}": "ignore",
  },
  "ltex.latex.environments": {
    "minted": "ignore",
    "\\begin{frame}[]": "default",
    "\\begin{frame}<>[]": "default",
  },

  "texlab.path": "${env:TEXLAB_PATH}",
  "texlab.build.executable": "latexmk",
  "texlab.build.args": [
    "-interaction=nonstopmode",
    "-synctex=1",
    "%f",
  ],
  "texlab.build.onSave": true,
  "texlab.chktex.onEdit": true,

  "rust-analyzer.server.path": "rust-analyzer_custom-wrapper",
  "rust-analyzer.check.command": "clippy",
  "rust-analyzer.diagnostics.experimental.enable": true,

  "flutter.sdk.path": "${env:FLUTTER_SDK_PATH}",
  "flutter.trace.server": "verbose",

  "java.enabled": false,
  "java.compile.nullAnalysis.mode": "automatic",
  "java.format.enabled": true,
  "java.format.onType.enabled": true,
  "java.format.comments.enabled": false,
  "java.jdt.ls.java.home": "${env:JDK_HOME}",
  "java.configuration.runtimes": [
    {
      "default": true,
      "name": "JavaSE-21",
      "path": "${env:JDK_HOME}/lib/openjdk",
    },
  ],

  "json.format.keepLines": true,

}
